…
## Example

The core initial functionality of `chinadevfin2` is to load the GCDF 2.0
dataset as a `tibble` using `gcdf2_dataset`:

``` r
# load the chinadevfin2 library
library(chinadevfin2)

# Load the GCDF 2.0 dataset as a tibble
gcdf2_dataset
#> # A tibble: 13,427 × 70
#>    aid_data_tuff_project_id recommended_for_aggrega…¹ umbrella financier_country
#>                       <dbl> <chr>                     <chr>    <chr>            
#>  1                    53631 Yes                       No       China (People's …
#>  2                    53632 Yes                       No       China (People's …
#>  3                    53633 Yes                       No       China (People's …
#>  4                    53634 Yes                       No       China (People's …
#>  5                    53636 Yes                       No       China (People's …
#>  6                    53637 Yes                       No       China (People's …
#>  7                    53644 Yes                       No       China (People's …
#>  8                    53999 Yes                       No       China (People's …
#>  9                    54396 No                        No       China (People's …
#> 10                    56587 Yes                       No       China (People's …
#> # ℹ 13,417 more rows
#> # ℹ abbreviated name: ¹​recommended_for_aggregates
#> # ℹ 66 more variables: recipient <chr>, recipient_region <chr>,
#> #   commitment_year <dbl>, commitment_year_estimated <chr>,
#> #   implementation_start_year <dbl>, completion_year <dbl>, title <chr>,
#> #   description <chr>, staff_comments <chr>, status <chr>, intent <chr>,
#> #   flow_type <chr>, concessional <chr>, flow_class <chr>, sector_code <dbl>, …
```

`gcdf2_data_dictionary` contains AidData’s detailed data definitions for
all 70 columns of the GCDF 2.0:

``` r
# Load the GCDF 2.0 data dictionary as a tibble
gcdf2_data_dictionary
#> # A tibble: 70 × 4
#>    column_name                column_class field_name                description
#>    <chr>                      <chr>        <chr>                     <chr>      
#>  1 aid_data_tuff_project_id   numeric      AidData TUFF Project ID   "This fiel…
#>  2 recommended_for_aggregates character    Recommended For Aggregat… "This fiel…
#>  3 umbrella                   character    Umbrella                  "This fiel…
#>  4 financier_country          character    Financier Country         "This fiel…
#>  5 recipient                  character    Recipient                 "This fiel…
#>  6 recipient_region           character    Recipient Region          "This fiel…
#>  7 commitment_year            numeric      Commitment Year           "This fiel…
#>  8 commitment_year_estimated  character    Commitment Year Estimated "For proje…
#>  9 implementation_start_year  numeric      Implementation Start Year "This fiel…
#> 10 completion_year            numeric      Completion Year           "This fiel…
#> # ℹ 60 more rows
```
