Getting Started • chinadevfin2
…
committments_by_country
#> # A tibble: 142 × 3
#>    country_name iso3c total_commitments_bn
#>    <chr>        <chr>                <dbl>
#>  1 Russia       RUS                  125. 
#>  2 Venezuela    VEN                   91.1
#>  3 Angola       AGO                   52.7
#>  4 Kazakhstan   KAZ                   42.3
#>  5 Brazil       BRA                   41.5
#>  6 Indonesia    IDN                   34.9
#>  7 Pakistan     PAK                   34.6
#>  8 Vietnam      VNM                   18.5
#>  9 Iran         IRN                   17.1
#> 10 Ecuador      ECU                   16.9
#> # ℹ 132 more rows
…
# combine the datasets together to get 2017 GDP where available, but use the most recent non-empty (`mnrev`) value where 2017 data is not available. 
wb_gdp_usd_2017_or_mrnev <- wb_gdp_usd_2017 |> 
  left_join(wb_gdp_usd_mrnev, by = "iso3c") |> 
  mutate(gdp_usd_2017_or_mrnev = if_else(is.na(gdp_usd_2017), 
                                true = gdp_usd_mrnev,
                                false = gdp_usd_2017),
         # change the scale to billions of USD, in line with commitments
         gdp_usd_2017_or_mrnev_bn = gdp_usd_2017_or_mrnev/10^9) |> 
  select(iso3c, gdp_usd_2017_or_mrnev_bn)

wb_gdp_usd_2017_or_mrnev
#> # A tibble: 217 × 2
#>    iso3c gdp_usd_2017_or_mrnev_bn
#>    <chr>                    <dbl>
#>  1 ABW                      3.09 
#>  2 AFG                     18.9  
#>  3 AGO                     69.0  
#>  4 ALB                     13.0  
#>  5 AND                      3.00 
#>  6 ARE                    391.   
#>  7 ARG                    644.   
#>  8 ARM                     11.5  
#>  9 ASM                      0.612
#> 10 ATG                      1.47 
#> # ℹ 207 more rows
…
Now we’ll add the GDP data to our
committments_by_country tibble we created above, and then
calculate commitments as a percent of 2017 (or most recently available)
GDP.

committments_by_country |> 
  # join the two datasets by iso3c codes
  left_join(wb_gdp_usd_2017_or_mrnev, by = "iso3c") |> 
  # calculate the value of total commitments as a percentage of GDP
  mutate(commitments_pct_gdp = total_commitments_bn/gdp_usd_2017_or_mrnev_bn * 100) |> 
  # remove the iso3c column so the rest of the columns will be visible
  select(-iso3c) |> 
  # arrange the output in descending order by commitments as percent of GDP
  arrange(commitments_pct_gdp |> desc()) 
#> # A tibble: 142 × 4
#>    country_name  total_commitments_bn gdp_usd_2017_or_mrne…¹ commitments_pct_gdp
#>    <chr>                        <dbl>                  <dbl>               <dbl>
#>  1 Marshall Isl…                3.21                   0.213              1508. 
#>  2 Laos                        14.5                   17.1                  85.0
#>  3 Angola                      52.7                   69.0                  76.5
#>  4 Tonga                        0.326                  0.460                70.9
#>  5 Sierra Leone                 2.40                   3.72                 64.5
#>  6 Djibouti                     1.77                   2.76                 64.2
#>  7 Congo - Braz…                6.61                  11.1                  59.6
#>  8 Eritrea                      1.00                   2.07                 48.6
#>  9 Samoa                        0.406                  0.885                45.9
#> 10 Cambodia                    10.0                   22.2                  45.3
#> # ℹ 132 more rows
#> # ℹ abbreviated name: ¹​gdp_usd_2017_or_mrnev_bn
…
